<svg xmlns="http://www.w3.org/2000/svg" xmlns:xlink="http://www.w3.org/1999/xlink" width="507.617" height="430.667" viewBox="0 0 507.617 430.667">
  <defs>
    <linearGradient id="linear-gradient" x1="0.5" x2="0.5" y2="1" gradientUnits="objectBoundingBox">
      <stop offset="0.005" stop-color="#f48e46"/>
      <stop offset="0.564" stop-color="#f33d43"/>
      <stop offset="1" stop-color="#b1094f"/>
    </linearGradient>
  </defs>
  <path id="Tracé_8525" data-name="Tracé 8525" d="M574.116,6696.579,127.8,6631.661a42.8,42.8,0,0,0-14.244.392c-14.965,3-44.9,13.19-46.035,46.771a36.541,36.541,0,0,0,.115,3.956L91.109,6995.5a42.493,42.493,0,0,0,9.125,23.308c9.3,11.683,27.139,27.276,57.42,30.23l417.463,12.874S575.309,6696.743,574.116,6696.579Z" transform="translate(-67.511 -6631.246)" opacity="0.92" fill="url(#linear-gradient)"/>
</svg>
