<svg xmlns="http://www.w3.org/2000/svg" width="37.834" height="64.345" viewBox="0 0 37.834 64.345">
  <defs>
    <style>
      .cls-1 {
        fill: #444;
      }
    </style>
  </defs>
  <g id="Groupe_10" data-name="Groupe 10" transform="translate(71 157.97)">
    <path id="Tracé_15" data-name="Tracé 15" class="cls-1" d="M-33.166-151.842a6.128,6.128,0,0,0-6.128-6.128H-64.872A6.128,6.128,0,0,0-71-151.842v52.089a6.128,6.128,0,0,0,6.128,6.128h25.578a6.128,6.128,0,0,0,6.128-6.128Zm-1.6,44.1H-69.4v-38.1h34.637Zm-4.51,12.656H-64.891a4.56,4.56,0,0,1-4.51-4.579v-6.479h34.637v6.479a4.56,4.56,0,0,1-4.51,4.579Zm4.51-52.355H-69.4v-4.348a4.561,4.561,0,0,1,4.51-4.579h25.617a4.561,4.561,0,0,1,4.51,4.579Zm0,0"/>
    <path id="Tracé_16" data-name="Tracé 16" class="cls-1" d="M19.934-128.552H10.866a.8.8,0,0,0-.8.8.8.8,0,0,0,.8.8h9.068a.8.8,0,0,0,.8-.8.8.8,0,0,0-.8-.8Zm0,0" transform="translate(-67.483 -24.489)"/>
    <path id="Tracé_17" data-name="Tracé 17" class="cls-1" d="M24.063,162.874a3.59,3.59,0,1,0,3.59,3.59,3.589,3.589,0,0,0-3.59-3.59Zm0,5.581a1.991,1.991,0,1,1,1.991-1.991,1.991,1.991,0,0,1-1.991,1.991Zm0,0" transform="translate(-76.145 -267.082)"/>
    <path id="Tracé_18" data-name="Tracé 18" class="cls-1" d="M-18.613,7.4l6.314,4.774a.8.8,0,0,0,1.121-.147.8.8,0,0,0-.148-1.121l-.009-.007-5.471-4.136,5.471-4.137a.8.8,0,0,0,.163-1.118.8.8,0,0,0-1.119-.164l-.009.007-6.314,4.774a.8.8,0,0,0-.155,1.12.8.8,0,0,0,.155.155Zm0,0" transform="translate(-43.345 -132.488)"/>
    <path id="Tracé_19" data-name="Tracé 19" class="cls-1" d="M55.659,12.031a.8.8,0,0,0,1.119.156l6.314-4.774a.8.8,0,0,0,.156-1.12.776.776,0,0,0-.156-.155L56.777,1.364a.8.8,0,0,0-.963,1.276l5.471,4.137-5.471,4.136a.8.8,0,0,0-.155,1.119Zm0,0" transform="translate(-105.3 -132.5)"/>
    <path id="Tracé_20" data-name="Tracé 20" class="cls-1" d="M31.372,3.26a.8.8,0,0,0,.91-.671l2.155-14.24a.8.8,0,0,0-.671-.911.8.8,0,0,0-.91.671L30.7,2.349a.8.8,0,0,0,.671.911Zm0,0" transform="translate(-84.652 -121.035)"/>
    <path id="Tracé_21" data-name="Tracé 21" class="cls-1" d="M-31.168-23.93A14.707,14.707,0,0,0-16.461-38.637,14.707,14.707,0,0,0-31.168-53.345,14.707,14.707,0,0,0-45.875-38.637,14.723,14.723,0,0,0-31.168-23.93Zm0-27.816A13.108,13.108,0,0,1-18.059-38.637,13.109,13.109,0,0,1-31.168-25.529,13.109,13.109,0,0,1-44.276-38.637,13.122,13.122,0,0,1-31.168-51.746Zm0,0" transform="translate(-20.915 -87.094)"/>
  </g>
</svg>
